…
┌──────────┬──────────────────────┬──────────────────────┬─────────────────┬───────────────┬───┬──────────────────────┬───────────┬──────────────┬───────────────────┬────────────────────┬───────────────────┐        
│ VendorID │ tpep_pickup_datetime │ tpep_dropoff_datet.  │ passenger_count │ trip_distance │ . │       filename       │  Borough  │     Zone     │ avg_fare_borough  │   avg_fare_zone    │ avg_fare_overall  │        
│  int64   │      timestamp       │      timestamp       │      int32      │    double     │   │       varchar        │  varchar  │   varchar    │      double       │       double       │      double       │        
├──────────┼──────────────────────┼──────────────────────┼─────────────────┼───────────────┼───┼──────────────────────┼───────────┼──────────────┼───────────────────┼────────────────────┼───────────────────┤        
│        2 │ 2021-11-06 23:39:11  │ 2021-11-06 23:53:42  │                 │          3.64 │ . │ C:\Users\KaiES\Dow.  │ Manhattan │ Flatiron     │ 10.98803094855927 │ 10.265450130854807 │ 12.92908220235662 │        
│        2 │ 2021-11-06 23:25:15  │ 2021-11-06 23:45:36  │                 │          5.02 │ . │ C:\Users\KaiES\Dow.  │ Manhattan │ Flatiron     │ 10.98803094855927 │ 10.265450130854807 │ 12.92908220235662 │        
│        2 │ 2021-11-06 23:35:25  │ 2021-11-07 00:12:22  │                 │         10.05 │ . │ C:\Users\KaiES\Dow.  │ Manhattan │ Flatiron     │ 10.98803094855927 │ 10.265450130854807 │ 12.92908220235662 │        
│        2 │ 2021-11-07 00:47:00  │ 2021-11-07 01:02:00  │                 │          2.96 │ . │ C:\Users\KaiES\Dow.  │ Manhattan │ Flatiron     │ 10.98803094855927 │ 10.265450130854807 │ 12.92908220235662 │        
│        2 │ 2021-11-07 00:09:00  │ 2021-11-07 00:23:00  │                 │          3.72 │ . │ C:\Users\KaiES\Dow.  │ Manhattan │ Flatiron     │ 10.98803094855927 │ 10.265450130854807 │ 12.92908220235662 │        
│        2 │ 2021-11-07 00:41:00  │ 2021-11-07 00:49:00  │                 │          1.68 │ . │ C:\Users\KaiES\Dow.  │ Manhattan │ Flatiron     │ 10.98803094855927 │ 10.265450130854807 │ 12.92908220235662 │        
│        2 │ 2021-11-07 00:04:00  │ 2021-11-07 00:22:00  │                 │          2.21 │ . │ C:\Users\KaiES\Dow.  │ Manhattan │ Flatiron     │ 10.98803094855927 │ 10.265450130854807 │ 12.92908220235662 │        
│        2 │ 2021-11-07 00:52:00  │ 2021-11-07 01:02:00  │                 │          1.94 │ . │ C:\Users\KaiES\Dow.  │ Manhattan │ Flatiron     │ 10.98803094855927 │ 10.265450130854807 │ 12.92908220235662 │        
│        2 │ 2021-11-07 00:49:00  │ 2021-11-07 01:07:00  │                 │          4.76 │ . │ C:\Users\KaiES\Dow.  │ Manhattan │ Flatiron     │ 10.98803094855927 │ 10.265450130854807 │ 12.92908220235662 │        
│        2 │ 2021-11-07 02:19:00  │ 2021-11-07 02:29:00  │                 │          2.14 │ . │ C:\Users\KaiES\Dow.  │ Manhattan │ Flatiron     │ 10.98803094855927 │ 10.265450130854807 │ 12.92908220235662 │        
│        2 │ 2021-11-07 02:39:47  │ 2021-11-07 03:03:16  │                 │          7.08 │ . │ C:\Users\KaiES\Dow.  │ Manhattan │ Flatiron     │ 10.98803094855927 │ 10.265450130854807 │ 12.92908220235662 │        
│        2 │ 2021-11-07 02:33:36  │ 2021-11-07 02:51:02  │                 │          5.95 │ . │ C:\Users\KaiES\Dow.  │ Manhattan │ Flatiron     │ 10.98803094855927 │ 10.265450130854807 │ 12.92908220235662 │        
│        1 │ 2021-11-07 02:36:05  │ 2021-11-07 02:45:32  │                 │           2.4 │ . │ C:\Users\KaiES\Dow.  │ Manhattan │ Flatiron     │ 10.98803094855927 │ 10.265450130854807 │ 12.92908220235662 │        
│        2 │ 2021-11-07 02:35:00  │ 2021-11-07 02:53:00  │                 │          6.99 │ . │ C:\Users\KaiES\Dow.  │ Manhattan │ Flatiron     │ 10.98803094855927 │ 10.265450130854807 │ 12.92908220235662 │        
│        2 │ 2021-11-07 02:17:00  │ 2021-11-07 02:26:00  │                 │          2.68 │ . │ C:\Users\KaiES\Dow.  │ Manhattan │ Flatiron     │ 10.98803094855927 │ 10.265450130854807 │ 12.92908220235662 │        
│        2 │ 2021-11-07 02:07:00  │ 2021-11-07 02:16:00  │                 │          2.93 │ . │ C:\Users\KaiES\Dow.  │ Manhattan │ Flatiron     │ 10.98803094855927 │ 10.265450130854807 │ 12.92908220235662 │
│        2 │ 2021-11-07 03:50:00  │ 2021-11-07 04:04:00  │                 │          4.42 │ . │ C:\Users\KaiES\Dow.  │ Manhattan │ Flatiron     │ 10.98803094855927 │ 10.265450130854807 │ 12.92908220235662 │        
│        2 │ 2021-11-07 03:35:00  │ 2021-11-07 04:12:00  │                 │          8.85 │ . │ C:\Users\KaiES\Dow.  │ Manhattan │ Flatiron     │ 10.98803094855927 │ 10.265450130854807 │ 12.92908220235662 │        
│        2 │ 2021-11-07 03:16:00  │ 2021-11-07 03:30:00  │                 │          4.96 │ . │ C:\Users\KaiES\Dow.  │ Manhattan │ Flatiron     │ 10.98803094855927 │ 10.265450130854807 │ 12.92908220235662 │        
│        2 │ 2021-11-07 04:08:00  │ 2021-11-07 04:25:00  │                 │          5.13 │ . │ C:\Users\KaiES\Dow.  │ Manhattan │ Flatiron     │ 10.98803094855927 │ 10.265450130854807 │ 12.92908220235662 │        
│        · │          ·           │          ·           │               · │            ·  │ · │          ·           │     ·     │    ·         │         ·         │          ·         │         ·         │        
│        · │          ·           │          ·           │               · │            ·  │ · │          ·           │     ·     │    ·         │         ·         │          ·         │         ·         │        
│        · │          ·           │          ·           │               · │            ·  │ · │          ·           │     ·     │    ·         │         ·         │          ·         │         ·         │        
│        2 │ 2021-10-28 19:09:48  │ 2021-10-28 19:14:10  │               1 │          0.27 │ . │ C:\Users\KaiES\Dow.  │ Manhattan │ East Village │ 10.98803094855927 │ 11.139402671469176 │ 12.92908220235662 │        
│        2 │ 2021-10-28 19:21:56  │ 2021-10-28 19:40:51  │               1 │          3.78 │ . │ C:\Users\KaiES\Dow.  │ Manhattan │ East Village │ 10.98803094855927 │ 11.139402671469176 │ 12.92908220235662 │        
│        2 │ 2021-10-28 19:34:41  │ 2021-10-28 19:51:49  │               1 │          2.37 │ . │ C:\Users\KaiES\Dow.  │ Manhattan │ East Village │ 10.98803094855927 │ 11.139402671469176 │ 12.92908220235662 │        
│        2 │ 2021-10-28 19:31:19  │ 2021-10-28 19:44:29  │               1 │          1.63 │ . │ C:\Users\KaiES\Dow.  │ Manhattan │ East Village │ 10.98803094855927 │ 11.139402671469176 │ 12.92908220235662 │        
│        2 │ 2021-10-28 19:17:15  │ 2021-10-28 19:39:20  │               1 │          2.41 │ . │ C:\Users\KaiES\Dow.  │ Manhattan │ East Village │ 10.98803094855927 │ 11.139402671469176 │ 12.92908220235662 │        
│        2 │ 2021-10-28 19:38:14  │ 2021-10-28 19:41:46  │               1 │          0.63 │ . │ C:\Users\KaiES\Dow.  │ Manhattan │ East Village │ 10.98803094855927 │ 11.139402671469176 │ 12.92908220235662 │        
│        2 │ 2021-10-28 19:29:00  │ 2021-10-28 20:03:51  │               2 │          8.92 │ . │ C:\Users\KaiES\Dow.  │ Manhattan │ East Village │ 10.98803094855927 │ 11.139402671469176 │ 12.92908220235662 │        
│        2 │ 2021-10-28 19:56:14  │ 2021-10-28 20:10:49  │               2 │          2.11 │ . │ C:\Users\KaiES\Dow.  │ Manhattan │ East Village │ 10.98803094855927 │ 11.139402671469176 │ 12.92908220235662 │        
│        2 │ 2021-10-28 19:23:51  │ 2021-10-28 19:35:48  │               1 │          2.55 │ . │ C:\Users\KaiES\Dow.  │ Manhattan │ East Village │ 10.98803094855927 │ 11.139402671469176 │ 12.92908220235662 │        
│        1 │ 2021-10-28 19:19:19  │ 2021-10-28 19:28:52  │               1 │           0.9 │ . │ C:\Users\KaiES\Dow.  │ Manhattan │ East Village │ 10.98803094855927 │ 11.139402671469176 │ 12.92908220235662 │        
│        2 │ 2021-10-28 19:28:15  │ 2021-10-28 19:44:03  │               1 │          2.55 │ . │ C:\Users\KaiES\Dow.  │ Manhattan │ East Village │ 10.98803094855927 │ 11.139402671469176 │ 12.92908220235662 │        
│        2 │ 2021-10-28 19:18:51  │ 2021-10-28 19:51:04  │               1 │          4.34 │ . │ C:\Users\KaiES\Dow.  │ Manhattan │ East Village │ 10.98803094855927 │ 11.139402671469176 │ 12.92908220235662 │        
│        2 │ 2021-10-28 19:54:06  │ 2021-10-28 20:27:51  │               5 │          5.35 │ . │ C:\Users\KaiES\Dow.  │ Manhattan │ East Village │ 10.98803094855927 │ 11.139402671469176 │ 12.92908220235662 │        
│        2 │ 2021-10-28 19:43:54  │ 2021-10-28 19:59:25  │               1 │          2.67 │ . │ C:\Users\KaiES\Dow.  │ Manhattan │ East Village │ 10.98803094855927 │ 11.139402671469176 │ 12.92908220235662 │        
│        1 │ 2021-10-28 19:29:19  │ 2021-10-28 19:34:56  │               0 │           1.0 │ . │ C:\Users\KaiES\Dow.  │ Manhattan │ East Village │ 10.98803094855927 │ 11.139402671469176 │ 12.92908220235662 │        
│        2 │ 2021-10-28 19:18:30  │ 2021-10-28 19:28:08  │               2 │          1.07 │ . │ C:\Users\KaiES\Dow.  │ Manhattan │ East Village │ 10.98803094855927 │ 11.139402671469176 │ 12.92908220235662 │        
│        1 │ 2021-10-28 19:19:04  │ 2021-10-28 19:48:57  │               2 │           6.0 │ . │ C:\Users\KaiES\Dow.  │ Manhattan │ East Village │ 10.98803094855927 │ 11.139402671469176 │ 12.92908220235662 │        
│        1 │ 2021-10-28 19:19:22  │ 2021-10-28 19:33:38  │               2 │           1.2 │ . │ C:\Users\KaiES\Dow.  │ Manhattan │ East Village │ 10.98803094855927 │ 11.139402671469176 │ 12.92908220235662 │        
│        2 │ 2021-10-28 19:54:41  │ 2021-10-28 20:03:43  │               3 │           0.8 │ . │ C:\Users\KaiES\Dow.  │ Manhattan │ East Village │ 10.98803094855927 │ 11.139402671469176 │ 12.92908220235662 │        
│        2 │ 2021-10-28 19:48:56  │ 2021-10-28 20:09:20  │               2 │          2.69 │ . │ C:\Users\KaiES\Dow.  │ Manhattan │ East Village │ 10.98803094855927 │ 11.139402671469176 │ 12.92908220235662 │        
├──────────┴──────────────────────┴──────────────────────┴─────────────────┴───────────────┴───┴──────────────────────┴───────────┴──────────────┴───────────────────┴────────────────────┴───────────────────┤        
│ 5454808 rows (40 shown)                                                                                                                                                               25 columns (11 shown) │        
└─────────────────────────────────────────────────────────────────────────────────────────────────────────────────────────────────────────────────────────────────────────────────────────────────────────────┘      
